…
EDA
---

We can start by looking at the number of inspections per restaurant

``` r
inspection_dat %>%
  count(dba, sort = T)
```

    ## # A tibble: 21,374 x 2
    ##    dba                                       n
    ##    <chr>                                 <int>
    ##  1 DUNKIN' DONUTS                         4026
    ##  2 SUBWAY                                 3132
    ##  3 MCDONALD'S                             2289
    ##  4 STARBUCKS                              2110
    ##  5 KENNEDY FRIED CHICKEN                  1338
    ##  6 DUNKIN' DONUTS, BASKIN ROBBINS         1316
    ##  7 DOMINO'S                               1104
    ##  8 CROWN FRIED CHICKEN                    1022
    ##  9 BURGER KING                             973
    ## 10 GOLDEN KRUST CARIBBEAN BAKERY & GRILL   878
    ## # ... with 21,364 more rows

As we can see a lot of the restaurants a aboeve are chains, so we want to investigate at the single restaurant level

``` r
inspection_dat %>%
  count(dba, camis, sort = T)
```

    ## # A tibble: 26,876 x 3
    ##    dba                                        camis     n
    ##    <chr>                                      <int> <int>
    ##  1 RESTAURANTE & PANADERIA GUATELINDA      50001789    94
    ##  2 MAX BAKERY & RESTAURANT                 41683816    91
    ##  3 J J NOODLE                              41630632    81
    ##  4 PARTY WELL RESTAURANT & ORIENTAL BAKERY 50033122    79
    ##  5 BIG WONG RESTAURANT                     50035784    77
    ##  6 GOLDEN HOUSE RESTAURANT                 50012165    75
    ##  7 HUNAN BISTRO                            50045240    74
    ##  8 NEW SHANGHAI TIDE RESTAURANT            50036890    74
    ##  9 CAFE EXCHANGE                           41046492    73
    ## 10 242 CAFE BAKERY                         41642333    72
    ## # ... with 26,866 more rows
…
It looks like most of the inspections are relative to years 2015-2018 The difference could be due simply to selection bias, in other words, there could be more data available.

We now look at year and month

``` r
inspection_dat %>%
  count(year(inspection_date), month(inspection_date), sort = T) %>% 
  rename(year = "year(inspection_date)",
         month = "month(inspection_date)")
```

    ## # A tibble: 63 x 3
    ##     year month     n
    ##    <dbl> <dbl> <int>
    ##  1  2018    10 15103
    ##  2  2018     3 13931
    ##  3  2018     5 13645
    ##  4  2018     6 13319
    ##  5  2018     8 12932
    ##  6  2018     4 12709
    ##  7  2018    11 12204
    ##  8  2018     2 12113
    ##  9  2018     1 11940
    ## 10  2018     9 11473
    ## # ... with 53 more rows
…
We now look at `violation_description`

``` r
inspection_dat %>%
  count(violation_code, violation_description, sort = T) 
```

    ## # A tibble: 100 x 3
    ##    violation_code violation_description                                  n
    ##    <chr>          <chr>                                              <int>
    ##  1 10F            Non-food contact surface improperly constructed. ~ 53768
    ##  2 08A            Facility not vermin proof. Harborage or condition~ 41293
    ##  3 04L            Evidence of mice or live mice present in facility~ 27751
    ##  4 06D            Food contact surface not properly washed, rinsed ~ 25922
    ##  5 06C            Food not protected from potential source of conta~ 25451
    ##  6 02G            Cold food item held above 41º F (smoked fish and~ 22906
    ##  7 10B            Plumbing not properly installed or maintained; an~ 22651
    ##  8 04N            "Filth flies or food/refuse/sewage-associated (FR~ 21096
    ##  9 02B            Hot food item not held at or above 140º F.        19742
    ## 10 04H            Raw, cooked or prepared food is adulterated, cont~  8270
    ## # ... with 90 more rows
…
